<?xml version="1.0" encoding="utf-8"?>
<!-- Generator: Adobe Illustrator 13.0.0, SVG Export Plug-In . SVG Version: 6.00 Build 14948)  -->
<!DOCTYPE svg PUBLIC "-//W3C//DTD SVG 1.1//EN" "http://www.w3.org/Graphics/SVG/1.1/DTD/svg11.dtd">
<svg version="1.1" id="Layer_1" xmlns="http://www.w3.org/2000/svg" xmlns:xlink="http://www.w3.org/1999/xlink" x="0px" y="0px"
	 width="300px" height="32px" viewBox="0 0 300 32" enable-background="new 0 0 300 32" xml:space="preserve">
<path d="M56.55,0.797L44.647,31.27h-5.479L28.277,5.021h-0.005L17.381,31.27h-5.479L0,0.797h5.071l9.656,26.551L26.075,0.797h4.407
	l11.348,26.551l9.656-26.551C51.486,0.797,56.053,0.797,56.55,0.797"/>
<rect x="68.137" y="0.779" width="4.461" height="30.491"/>
<path d="M91.878,0.779l20.618,21.809c1.473,1.557,1.776,1.9,3.25,3.716c-0.219-2.159-0.219-2.548-0.261-4.493V0.779h4.16V31.27
	H115.4L93.741,8.424c-1.125-1.254-1.474-1.684-2.383-2.805c0.175,2.115,0.215,2.717,0.215,5.267V31.27h-4.157V0.779H91.878"/>
<path d="M138.925,0.779l20.622,21.809c1.471,1.557,1.775,1.9,3.248,3.716c-0.221-2.159-0.221-2.548-0.264-4.493V0.779h4.158V31.27
	h-4.242l-21.66-22.845c-1.126-1.254-1.476-1.684-2.382-2.805c0.173,2.115,0.219,2.717,0.219,5.267V31.27h-4.158V0.779H138.925"/>
<polyline points="181.533,0.779 209.773,0.779 209.773,4.539 185.865,4.539 185.865,13.648 209.127,13.648 209.127,17.235 
	185.865,17.235 185.865,27.513 210.857,27.513 210.857,31.27 181.533,31.27 181.533,0.779 "/>
<path d="M224.588,0.779h20.797c2.684,0.045,5.93,0.086,8.57,2.462c1,0.864,2.73,2.85,2.73,6.522c0,7.299-6.195,8.293-8.23,8.64
	l11.264,12.867h-5.676l-10.35-12.181H228.92V31.27h-4.332V0.779 M228.875,4.452v11.055h15.121c2.383,0,5.412-0.046,7.146-2.334
	c0.779-0.992,1.041-2.155,1.041-3.234c0-1.167-0.309-2.333-0.912-3.24c-1.387-2.205-3.596-2.205-5.586-2.246H228.875z"/>
<path d="M271.758,23.453c0.48,0.563,0.953,1.077,2.121,1.857c3.338,2.287,7.406,2.979,11.438,2.979c6.715,0,10.4-2.462,10.4-6.177
	c0-4.232-4.813-4.62-10.877-5.139c-7.666-0.648-10.309-0.864-12.65-2.978c-1.861-1.729-2.166-3.674-2.166-5.096
	c0-8.68,11.527-8.9,14.344-8.9c4.285,0,8.617,0.693,12.17,3.07c1.514,1.034,2.207,1.854,3.076,3.066l-3.943,1.598
	c-0.648-0.651-1.043-1.081-1.779-1.598c-2.727-1.944-6.105-2.547-9.441-2.547c-2.469,0-5.545,0.341-7.363,1.247
	c-2.123,1.04-2.73,2.595-2.73,3.847c0,0.907,0.35,1.726,0.912,2.334c1.039,1.204,2.641,1.465,5.498,1.767
	c2.773,0.306,5.504,0.476,8.277,0.777c1.297,0.133,2.643,0.303,3.941,0.608c3.291,0.773,7.016,2.892,7.016,7.898
	c0,1.258-0.215,3.197-1.559,5.101C296.059,30.531,291.336,32,285.014,32c-2.512,0-5.721-0.344-7.885-0.906
	c-6.279-1.556-8.49-4.749-9.355-6.001L271.758,23.453"/>
</svg>
